[
  {
    "line": 2,
    "elements": [
      {
        "line": 4,
        "name": "user access to website",
        "description": "",
        "type": "background",
        "keyword": "Background",
        "steps": [
          {
            "result": {
              "duration": 70574795000,
              "status": "passed"
            },
            "line": 5,
            "name": "User opens the Website",
            "match": {
              "location": "Step_SignIn.user_opens_the_Website()"
            },
            "keyword": "Given "
          }
        ]
      },
      {
        "before": [
          {
            "result": {
              "duration": 22877400,
              "status": "passed"
            },
            "match": {
              "location": "ServiceHooks.beforeScenario(Scenario)"
            }
          }
        ],
        "line": 744,
        "name": "Verify user is able to add items from menu after clicking on Add more items and place order successfully for delivery order",
        "description": "",
        "id": "order;verify-user-is-able-to-add-items-from-menu-after-clicking-on-add-more-items-and-place-order-successfully-for-delivery-order",
        "after": [
          {
            "result": {
              "duration": 67600,
              "status": "passed"
            },
            "match": {
              "location": "ServiceHooks.endTest(Scenario)"
            }
          }
        ],
        "type": "scenario",
        "keyword": "Scenario",
        "steps": [
          {
            "result": {
              "duration": 31404851800,
              "status": "passed"
            },
            "line": 745,
            "name": "user clicks on Order button",
            "match": {
              "location": "Step_Order.user_clicks_on_Order_button()"
            },
            "keyword": "Given "
          },
          {
            "result": {
              "duration": 13295103700,
              "status": "passed"
            },
            "line": 746,
            "name": "user enters the address",
            "match": {
              "location": "Step_Order.user_enters_the_address(DataTable)"
            },
            "rows": [
              {
                "cells": [
                  "address",
                  "4319 Main St Philadelphia, PA"
                ],
                "line": 747
              }
            ],
            "keyword": "When "
          },
          {
            "result": {
              "duration": 11218755600,
              "status": "passed"
            },
            "line": 748,
            "name": "user clicks on Delivery button",
            "match": {
              "location": "Step_Order.user_clicks_on_Delivery_button()"
            },
            "keyword": "And "
          },
          {
            "result": {
              "duration": 3293190100,
              "status": "passed"
            },
            "line": 749,
            "name": "user select Date and Time from Calendar",
            "match": {
              "location": "Step_Order.user_select_Date_and_Time_from_Calendar()"
            },
            "keyword": "And "
          },
          {
            "result": {
              "duration": 333916800,
              "status": "passed"
            },
            "line": 750,
            "name": "user clicks on Continue",
            "match": {
              "location": "Step_Order.user_clicks_on_Continue()"
            },
            "keyword": "And "
          },
          {
            "result": {
              "duration": 23992447400,
              "status": "passed"
            },
            "line": 751,
            "name": "On Menu Page click on The Insomniac",
            "match": {
              "location": "Step_Order.on_Menu_Page_click_on_the_Insomniac()"
            },
            "keyword": "And "
          },
          {
            "result": {
              "duration": 909412700,
              "status": "passed"
            },
            "line": 752,
            "name": "user clicks on add product",
            "match": {
              "location": "Step_Order.user_clicks_on_add_product()"
            },
            "keyword": "And "
          },
          {
            "result": {
              "duration": 1950114200,
              "status": "passed"
            },
            "line": 753,
            "name": "user goes to the cart",
            "match": {
              "location": "Step_Order.user_goes_to_the_cart()"
            },
            "keyword": "And "
          },
          {
            "result": {
              "duration": 107125900,
              "status": "passed"
            },
            "line": 754,
            "name": "user clicks on the checkout button",
            "match": {
              "location": "Step_Order.user_clicks_on_the_checkout_button()"
            },
            "keyword": "And "
          },
          {
            "result": {
              "duration": 31361354900,
              "status": "passed"
            },
            "line": 755,
            "name": "user clicks on Add more items button on Checkout page",
            "match": {
              "location": "Step_Order.user_clicks_on_Add_more_items_button_on_Checkout_page()"
            },
            "keyword": "And "
          },
          {
            "result": {
              "duration": 5258875100,
              "status": "passed"
            },
            "line": 756,
            "name": "On Menu Page click on The Major Rager",
            "match": {
              "location": "Step_Order.major_rager()"
            },
            "keyword": "And "
          },
          {
            "result": {
              "duration": 678889800,
              "status": "passed"
            },
            "line": 757,
            "name": "user clicks on add product",
            "match": {
              "location": "Step_Order.user_clicks_on_add_product()"
            },
            "keyword": "And "
          },
          {
            "result": {
              "duration": 84812200,
              "status": "passed"
            },
            "line": 758,
            "name": "user goes to the cart again",
            "match": {
              "location": "Step_Order.go_to_cart_again()"
            },
            "keyword": "And "
          },
          {
            "result": {
              "duration": 12253567700,
              "status": "passed"
            },
            "line": 759,
            "name": "product added after clicking add more items button should be present in the cart",
            "match": {
              "location": "Step_Order.add_more_items_button()"
            },
            "keyword": "Then "
          }
        ],
        "tags": [
          {
            "line": 742,
            "name": "@OrderDebug"
          },
          {
            "line": 743,
            "name": "@DevOrder"
          }
        ]
      }
    ],
    "name": "Order",
    "description": "",
    "id": "order",
    "keyword": "Feature",
    "uri": "Order.feature",
    "tags": [
      {
        "line": 1,
        "name": "@Order"
      }
    ]
  }
]